%YAML 1.1
%TAG !u! tag:unity3d.com,2011:
--- !u!221 &22100000
AnimatorOverrideController:
  m_ObjectHideFlags: 0
  m_PrefabParentObject: {fileID: 0}
  m_PrefabInternal: {fileID: 0}
  m_Name: Gen1
  m_Controller: {fileID: 9100000, guid: b19fa0ce06f73bb40b5913caee54a38d, type: 2}
  m_Clips: []
